{
  "findAllConfigByCategory" : {
    "transaction" : "findAllConfigByCategory",
    "sampleCount" : 633,
    "errorCount" : 0,
    "errorPct" : 0.0,
    "meanResTime" : 7.083728278041073,
    "medianResTime" : 4.0,
    "minResTime" : 2.0,
    "maxResTime" : 306.0,
    "pct1ResTime" : 10.0,
    "pct2ResTime" : 16.299999999999955,
    "pct3ResTime" : 71.47999999999911,
    "throughput" : 2.126073112732256,
    "receivedKBytesPerSec" : 1.9730608714380717,
    "sentKBytesPerSec" : 1.8931894654840593
  },
  "getDashboardData" : {
    "transaction" : "getDashboardData",
    "sampleCount" : 2910,
    "errorCount" : 0,
    "errorPct" : 0.0,
    "meanResTime" : 366.2721649484543,
    "medianResTime" : 344.5,
    "minResTime" : 107.0,
    "maxResTime" : 1956.0,
    "pct1ResTime" : 519.0,
    "pct2ResTime" : 589.0,
    "pct3ResTime" : 1057.229999999999,
    "throughput" : 9.729675510306434,
    "receivedKBytesPerSec" : 84.46004454210342,
    "sentKBytesPerSec" : 25.90146039169467
  },
  "getChildCheckInCheckOutByArea" : {
    "transaction" : "getChildCheckInCheckOutByArea",
    "sampleCount" : 533,
    "errorCount" : 0,
    "errorPct" : 0.0,
    "meanResTime" : 2527.5196998123847,
    "medianResTime" : 2548.0,
    "minResTime" : 1190.0,
    "maxResTime" : 4218.0,
    "pct1ResTime" : 3120.4,
    "pct2ResTime" : 3259.6,
    "pct3ResTime" : 3595.859999999999,
    "throughput" : 1.767235519776128,
    "receivedKBytesPerSec" : 9.529184978663864,
    "sentKBytesPerSec" : 5.867774186756675
  },
  "getAllClassInfo" : {
    "transaction" : "getAllClassInfo",
    "sampleCount" : 528,
    "errorCount" : 0,
    "errorPct" : 0.0,
    "meanResTime" : 47.50568181818183,
    "medianResTime" : 27.0,
    "minResTime" : 8.0,
    "maxResTime" : 1511.0,
    "pct1ResTime" : 87.10000000000002,
    "pct2ResTime" : 133.0,
    "pct3ResTime" : 360.2300000000005,
    "throughput" : 1.77964130790154,
    "receivedKBytesPerSec" : 1.9655999211295327,
    "sentKBytesPerSec" : 1.7396688957123452
  },
  "findAllLevels" : {
    "transaction" : "findAllLevels",
    "sampleCount" : 237,
    "errorCount" : 0,
    "errorPct" : 0.0,
    "meanResTime" : 22.19831223628692,
    "medianResTime" : 11.0,
    "minResTime" : 5.0,
    "maxResTime" : 229.0,
    "pct1ResTime" : 46.60000000000005,
    "pct2ResTime" : 75.59999999999997,
    "pct3ResTime" : 203.9000000000002,
    "throughput" : 0.8095008761053786,
    "receivedKBytesPerSec" : 0.5154243859577214,
    "sentKBytesPerSec" : 0.6814353078152698
  },
  "findAllConfigByCategory (health_check_type)" : {
    "transaction" : "findAllConfigByCategory (health_check_type)",
    "sampleCount" : 237,
    "errorCount" : 0,
    "errorPct" : 0.0,
    "meanResTime" : 22.19831223628692,
    "medianResTime" : 12.0,
    "minResTime" : 5.0,
    "maxResTime" : 328.0,
    "pct1ResTime" : 48.80000000000007,
    "pct2ResTime" : 75.39999999999998,
    "pct3ResTime" : 203.72000000000003,
    "throughput" : 0.8095617094390796,
    "receivedKBytesPerSec" : 0.7977028953359682,
    "sentKBytesPerSec" : 0.7779382051641156
  },
  "getAllEvents" : {
    "transaction" : "getAllEvents",
    "sampleCount" : 7933,
    "errorCount" : 0,
    "errorPct" : 0.0,
    "meanResTime" : 22.589688642380004,
    "medianResTime" : 12.0,
    "minResTime" : 6.0,
    "maxResTime" : 1212.0,
    "pct1ResTime" : 39.0,
    "pct2ResTime" : 64.0,
    "pct3ResTime" : 201.65999999999985,
    "throughput" : 26.55148638788666,
    "receivedKBytesPerSec" : 13.146097264314976,
    "sentKBytesPerSec" : 28.833254749345667
  },
  "addOrUpdateUserDevice" : {
    "transaction" : "addOrUpdateUserDevice",
    "sampleCount" : 10950,
    "errorCount" : 0,
    "errorPct" : 0.0,
    "meanResTime" : 34.78894977168944,
    "medianResTime" : 20.0,
    "minResTime" : 10.0,
    "maxResTime" : 1929.0,
    "pct1ResTime" : 61.0,
    "pct2ResTime" : 90.0,
    "pct3ResTime" : 229.0,
    "throughput" : 36.63837091415245,
    "receivedKBytesPerSec" : 17.675151593350886,
    "sentKBytesPerSec" : 45.10100529144234
  },
  "getHomefeed" : {
    "transaction" : "getHomefeed",
    "sampleCount" : 105,
    "errorCount" : 0,
    "errorPct" : 0.0,
    "meanResTime" : 14047.047619047626,
    "medianResTime" : 14220.0,
    "minResTime" : 6270.0,
    "maxResTime" : 16893.0,
    "pct1ResTime" : 15657.4,
    "pct2ResTime" : 15984.2,
    "pct3ResTime" : 16887.42,
    "throughput" : 0.34743017480701077,
    "receivedKBytesPerSec" : 65.49771298400333,
    "sentKBytesPerSec" : 1.0555227283443462
  },
  "findAllConfigByCategory (Relation_Child)" : {
    "transaction" : "findAllConfigByCategory (Relation_Child)",
    "sampleCount" : 237,
    "errorCount" : 0,
    "errorPct" : 0.0,
    "meanResTime" : 33.054852320675096,
    "medianResTime" : 13.0,
    "minResTime" : 5.0,
    "maxResTime" : 1319.0,
    "pct1ResTime" : 73.0,
    "pct2ResTime" : 121.39999999999998,
    "pct3ResTime" : 440.9600000000014,
    "throughput" : 0.8098881534208378,
    "receivedKBytesPerSec" : 0.6469614350568802,
    "sentKBytesPerSec" : 0.7758791782283612
  },
  "me" : {
    "transaction" : "me",
    "sampleCount" : 633,
    "errorCount" : 0,
    "errorPct" : 0.0,
    "meanResTime" : 78.6666666666666,
    "medianResTime" : 46.0,
    "minResTime" : 24.0,
    "maxResTime" : 1141.0,
    "pct1ResTime" : 146.60000000000002,
    "pct2ResTime" : 217.5999999999999,
    "pct3ResTime" : 641.0199999999969,
    "throughput" : 2.12365510230784,
    "receivedKBytesPerSec" : 3.6181180144579645,
    "sentKBytesPerSec" : 4.868039777016214
  },
  "getNotificationCount" : {
    "transaction" : "getNotificationCount",
    "sampleCount" : 8033,
    "errorCount" : 0,
    "errorPct" : 0.0,
    "meanResTime" : 24.955309348935653,
    "medianResTime" : 14.0,
    "minResTime" : 8.0,
    "maxResTime" : 1591.0,
    "pct1ResTime" : 45.0,
    "pct2ResTime" : 73.0,
    "pct3ResTime" : 174.0,
    "throughput" : 26.885823108487124,
    "receivedKBytesPerSec" : 13.968025286831201,
    "sentKBytesPerSec" : 28.97516521242913
  },
  "dismissChildCheckInByVPS" : {
    "transaction" : "dismissChildCheckInByVPS",
    "sampleCount" : 528,
    "errorCount" : 0,
    "errorPct" : 0.0,
    "meanResTime" : 37.87310606060605,
    "medianResTime" : 14.0,
    "minResTime" : 6.0,
    "maxResTime" : 1571.0,
    "pct1ResTime" : 59.0,
    "pct2ResTime" : 111.94999999999959,
    "pct3ResTime" : 460.3500000000031,
    "throughput" : 1.7814306102412016,
    "receivedKBytesPerSec" : 0.9898769699484802,
    "sentKBytesPerSec" : 1.3604284543052927
  },
  "addClassesToArea" : {
    "transaction" : "addClassesToArea",
    "sampleCount" : 528,
    "errorCount" : 0,
    "errorPct" : 0.0,
    "meanResTime" : 69.67803030303024,
    "medianResTime" : 53.0,
    "minResTime" : 13.0,
    "maxResTime" : 1048.0,
    "pct1ResTime" : 115.0,
    "pct2ResTime" : 179.0,
    "pct3ResTime" : 359.7900000000054,
    "throughput" : 1.7792215231888502,
    "receivedKBytesPerSec" : 0.9747492915126416,
    "sentKBytesPerSec" : 1.294453158960638
  },
  "findAllConfigByCategory (non_parent_relationship)" : {
    "transaction" : "findAllConfigByCategory (non_parent_relationship)",
    "sampleCount" : 237,
    "errorCount" : 0,
    "errorPct" : 0.0,
    "meanResTime" : 51.59071729957805,
    "medianResTime" : 15.0,
    "minResTime" : 5.0,
    "maxResTime" : 1298.0,
    "pct1ResTime" : 108.80000000000007,
    "pct2ResTime" : 224.69999999999996,
    "pct3ResTime" : 604.1800000000009,
    "throughput" : 0.8100653179250022,
    "receivedKBytesPerSec" : 0.662133467874245,
    "sentKBytesPerSec" : 0.7831686179157736
  },
  "findAllConfigByCategory (guardian_rejection_reason)" : {
    "transaction" : "findAllConfigByCategory (guardian_rejection_reason)",
    "sampleCount" : 237,
    "errorCount" : 0,
    "errorPct" : 0.0,
    "meanResTime" : 27.265822784810123,
    "medianResTime" : 11.0,
    "minResTime" : 5.0,
    "maxResTime" : 718.0,
    "pct1ResTime" : 64.40000000000003,
    "pct2ResTime" : 97.1,
    "pct3ResTime" : 220.22000000000014,
    "throughput" : 0.8095395871689683,
    "receivedKBytesPerSec" : 0.7708018530173282,
    "sentKBytesPerSec" : 0.784241475069938
  },
  "getCountCheckInOutChildren" : {
    "transaction" : "getCountCheckInOutChildren",
    "sampleCount" : 238,
    "errorCount" : 0,
    "errorPct" : 0.0,
    "meanResTime" : 1267.2352941176475,
    "medianResTime" : 1237.5,
    "minResTime" : 558.0,
    "maxResTime" : 2078.0,
    "pct1ResTime" : 1745.8,
    "pct2ResTime" : 1809.6999999999998,
    "pct3ResTime" : 2051.429999999999,
    "throughput" : 0.8063122732246731,
    "receivedKBytesPerSec" : 0.5094570710706675,
    "sentKBytesPerSec" : 0.940172709209238
  },
  "getCentreHolidaysOfYear" : {
    "transaction" : "getCentreHolidaysOfYear",
    "sampleCount" : 10846,
    "errorCount" : 0,
    "errorPct" : 0.0,
    "meanResTime" : 35.07855430573478,
    "medianResTime" : 20.0,
    "minResTime" : 11.0,
    "maxResTime" : 1876.0,
    "pct1ResTime" : 63.0,
    "pct2ResTime" : 97.0,
    "pct3ResTime" : 229.0,
    "throughput" : 36.290754323036566,
    "receivedKBytesPerSec" : 65.69076073272458,
    "sentKBytesPerSec" : 36.00616757329421
  },
  "findAllChildrenByParent" : {
    "transaction" : "findAllChildrenByParent",
    "sampleCount" : 105,
    "errorCount" : 0,
    "errorPct" : 0.0,
    "meanResTime" : 53.38095238095237,
    "medianResTime" : 30.0,
    "minResTime" : 20.0,
    "maxResTime" : 472.0,
    "pct1ResTime" : 96.80000000000001,
    "pct2ResTime" : 147.69999999999987,
    "pct3ResTime" : 470.13999999999993,
    "throughput" : 0.35475969254159984,
    "receivedKBytesPerSec" : 0.7621790269448433,
    "sentKBytesPerSec" : 0.5435722242165723
  },
  "findAllSchoolConfig" : {
    "transaction" : "findAllSchoolConfig",
    "sampleCount" : 10952,
    "errorCount" : 0,
    "errorPct" : 0.0,
    "meanResTime" : 36.7726442658874,
    "medianResTime" : 22.0,
    "minResTime" : 8.0,
    "maxResTime" : 1236.0,
    "pct1ResTime" : 67.0,
    "pct2ResTime" : 108.0,
    "pct3ResTime" : 249.46999999999935,
    "throughput" : 36.63329575900696,
    "receivedKBytesPerSec" : 798.9206649317808,
    "sentKBytesPerSec" : 21.930578836260672
  },
  "getChildCheckInCheckOut" : {
    "transaction" : "getChildCheckInCheckOut",
    "sampleCount" : 242,
    "errorCount" : 0,
    "errorPct" : 0.0,
    "meanResTime" : 4686.289256198348,
    "medianResTime" : 4728.0,
    "minResTime" : 2904.0,
    "maxResTime" : 6175.0,
    "pct1ResTime" : 5263.8,
    "pct2ResTime" : 5462.65,
    "pct3ResTime" : 5733.7,
    "throughput" : 0.8003333619954096,
    "receivedKBytesPerSec" : 54.56882324331787,
    "sentKBytesPerSec" : 2.3517608264103393
  },
  "getClassAttendanceSummaries" : {
    "transaction" : "getClassAttendanceSummaries",
    "sampleCount" : 7935,
    "errorCount" : 0,
    "errorPct" : 0.0,
    "meanResTime" : 26.566099558916182,
    "medianResTime" : 12.0,
    "minResTime" : 6.0,
    "maxResTime" : 1830.0,
    "pct1ResTime" : 51.0,
    "pct2ResTime" : 84.0,
    "pct3ResTime" : 234.28000000000065,
    "throughput" : 26.552403770541723,
    "receivedKBytesPerSec" : 15.039447448158397,
    "sentKBytesPerSec" : 29.119481869451516
  },
  "getLatestMobileVersion" : {
    "transaction" : "getLatestMobileVersion",
    "sampleCount" : 10952,
    "errorCount" : 0,
    "errorPct" : 0.0,
    "meanResTime" : 16.51616143170196,
    "medianResTime" : 13.0,
    "minResTime" : 9.0,
    "maxResTime" : 896.0,
    "pct1ResTime" : 22.0,
    "pct2ResTime" : 29.0,
    "pct3ResTime" : 76.0,
    "throughput" : 36.526147278548564,
    "receivedKBytesPerSec" : 19.851365389666157,
    "sentKBytesPerSec" : 21.442497196421428
  },
  "findAllConfigByCategory (checkout_decline_reason)" : {
    "transaction" : "findAllConfigByCategory (checkout_decline_reason)",
    "sampleCount" : 237,
    "errorCount" : 0,
    "errorPct" : 0.0,
    "meanResTime" : 21.49367088607595,
    "medianResTime" : 12.0,
    "minResTime" : 5.0,
    "maxResTime" : 279.0,
    "pct1ResTime" : 39.60000000000005,
    "pct2ResTime" : 78.1,
    "pct3ResTime" : 180.96000000000004,
    "throughput" : 0.8095008761053786,
    "receivedKBytesPerSec" : 0.5589034369204127,
    "sentKBytesPerSec" : 0.7826229173284421
  },
  "getAllCentreClasses" : {
    "transaction" : "getAllCentreClasses",
    "sampleCount" : 237,
    "errorCount" : 0,
    "errorPct" : 0.0,
    "meanResTime" : 46.45991561181433,
    "medianResTime" : 26.0,
    "minResTime" : 15.0,
    "maxResTime" : 1424.0,
    "pct1ResTime" : 69.0,
    "pct2ResTime" : 93.59999999999997,
    "pct3ResTime" : 805.7800000000028,
    "throughput" : 0.8094676981402736,
    "receivedKBytesPerSec" : 1.1106465975459807,
    "sentKBytesPerSec" : 0.9185561183974588
  },
  "Total" : {
    "transaction" : "Total",
    "sampleCount" : 77008,
    "errorCount" : 0,
    "errorPct" : 0.0,
    "meanResTime" : 97.35331394140788,
    "medianResTime" : 17.0,
    "minResTime" : 2.0,
    "maxResTime" : 16893.0,
    "pct1ResTime" : 78.0,
    "pct2ResTime" : 257.0,
    "pct3ResTime" : 2211.9900000000016,
    "throughput" : 253.86862180142285,
    "receivedKBytesPerSec" : 1162.2883278615768,
    "sentKBytesPerSec" : 263.27869445037385
  },
  "getAllArea" : {
    "transaction" : "getAllArea",
    "sampleCount" : 528,
    "errorCount" : 0,
    "errorPct" : 0.0,
    "meanResTime" : 55.65530303030299,
    "medianResTime" : 30.5,
    "minResTime" : 11.0,
    "maxResTime" : 1361.0,
    "pct1ResTime" : 97.40000000000009,
    "pct2ResTime" : 171.44999999999914,
    "pct3ResTime" : 459.2800000000025,
    "throughput" : 1.7796173148675567,
    "receivedKBytesPerSec" : 3.300286407161612,
    "sentKBytesPerSec" : 1.7500728867887008
  },
  "findAllConfigByCategory (checkin_decline_reason)" : {
    "transaction" : "findAllConfigByCategory (checkin_decline_reason)",
    "sampleCount" : 237,
    "errorCount" : 0,
    "errorPct" : 0.0,
    "meanResTime" : 57.202531645569636,
    "medianResTime" : 17.0,
    "minResTime" : 5.0,
    "maxResTime" : 419.0,
    "pct1ResTime" : 160.60000000000022,
    "pct2ResTime" : 247.19999999999982,
    "pct3ResTime" : 395.62000000000023,
    "throughput" : 0.8102425599562401,
    "receivedKBytesPerSec" : 0.5372604474709834,
    "sentKBytesPerSec" : 0.7825487224577358
  }
}